10
7
3371403682388451038742178603384837996426503287731059172547879464
48214179213602292701295761850732620
58750485658882272119474580758726619285101
21205319508015622478823571432363639857485549715476128
624350759329673562184
950936055663712667819835619294699021658522567974780738918788
36447696988012592634742019669378088860333
9
658578363952268864933926
70736632426559412023928755880572637453969364330603322157843260582209228370243936827847055741
90495028771607190926
179232937830713482654821433472819603479247795766310672200429284945254464793797213389436436374
499829
5782305002597594218803983410497312176173
688419
17965325841320159433488903658575752793101882787921932
82617191248518876443596438669529440859795066155763612183727
3
646201982759353514078061698343109841249907492967533145007583414360517826
8526580542748318693611276984900443740
682934051561121128183295783267077723266419246229
7
68625804712449430745187132016689145907249406119376752287
7813321523822518372031623624304234468986104883137333
2457287522686391457141734400999099344
7975905276763395512052823
4104855957852433916099466602615846097595784822442865123097830908795906372888096573051547647505251340
54320894066206538851875727947754571203648428084538
95265004288105584965286032036975039692971257181846333343
8
31902221827909738104071751377666
243333446932669140587173696700398140375376647301810001744245755653175
559206512878547798436567741494373542897678
586957749617364336693380524597590474096730579371484272
2153251262249856363440945347438070008669567920789713301188
62548670864578191752978899446471148200771100357230177642047317595631910655603199744352
83318042104502440622410
37062979085964382223081212094975540937077533514742228027691658161743224854278962278196
3
6623581318122916964164327393634663284669369357987446808366669
581960569966590813509328509471609556062430884767911912102326073599
584612108193385148274599
9
42418774148228891
8393194074344786309578343194604672147758507020020632847947355739819372451595455
15226879515459883445048481502425610053951427152078913055547208589352238239673461999
7937006406332735377511019213090205642774880095638906450305785625551143658121
76
55048820586314531048093482
177791506807584361426259327553
8556609638804686289392111300862086442285930007268445311942234025156351251923670
295022871131064359567321963248998395836669035
9
774184716480300396721452024460406426528424074870107705728908
697825549458116398420966895
2812821491647217201027768381319180093
3876178073638613372144034312371477446276262583924859904693092307952685082266
75390249099585423674681078366664241046652334268370873386
9051928526792020599019452187274196930775624419646933933780176578018054116236749
22937257279498881346047460
115574149485036660563011892185663550846135060097840259427757558089152998985767209871001196481856762
2121895855581651181211134944330354693337
9
6394429133854207687284844016976
4955708889597217807050388431942678259231483658651838978502447
9488940
213787857933122769234875471269168537635409449211018056874708004969562525993603187996408365220071
5960247091805470103253919932094
16715262066203194273048058992
762719249471367372392
83253307490232232986235502521533971121571883222341626558518733
23433947278799976421465435424863026576272637743220128464867746083451237874640172497703
9
1086887908068782516486149749802140068928246052863237578600610985496586955894797188085
17143694083037553098046577433
6584133364743318488673889
98769127494129432360174606782017628917662173428669110734231953228792084932029452
5793458113308009327542515917
391429169
26348464876138078322418162257729835850232295674978294549863273798969
1360805919516619021319282216260014568328245534182439640064080061304245138580309866737059
460288080020137865152654525682
